[
	{
	"logConfiguration": {
		"logDriver": "awslogs",
		"options": {
			"awslogs-group": "<service_name>",
			"awslogs-region": "eu-west-1",
			"awslogs-stream-prefix": "ecs"
		}
	},
	"portMappings": [
		{
			"hostPort": "<port>",
			"protocol": "tcp",
			"containerPort": "<container_port>"
		}
	],
	"cpu": 0,
	"memory": "<memory>",
	"environment": [],
	"mountPoints": [],
	"volumesFrom": [],
	"image": "364843010988.dkr.ecr.eu-west-1.amazonaws.com/<service_name>:latest",
	"name": "<service_name>"
	}
]